<?xml version="1.0" encoding="UTF-8"?>
<svg width="79px" height="25px" viewBox="0 0 79 25" version="1.1" xmlns="http://www.w3.org/2000/svg" xmlns:xlink="http://www.w3.org/1999/xlink">
    <!-- Generator: Sketch 49.3 (51167) - http://www.bohemiancoding.com/sketch -->
    <title>Group 3</title>
    <desc>Created with Sketch.</desc>
    <defs>
        <polygon id="path-1" points="0.022621713 0.0534405652 10.7814973 0.0534405652 10.7814973 14.8351614 0.022621713 14.8351614"></polygon>
    </defs>
    <g id="Welcome" stroke="none" stroke-width="1" fill="none" fill-rule="evenodd">
        <g id="INDEX" transform="translate(-705.000000, -899.000000)">
            <g id="Group-8" transform="translate(656.000000, 899.000000)">
                <g id="Group-3" transform="translate(49.000000, 0.000000)">
                    <rect id="Rectangle-2" fill="#4065B4" x="0" y="0" width="79" height="25" rx="8"></rect>
                    <g id="Group-5" transform="translate(9.000000, 4.000000)">
                        <text id="Me-gusta" font-family="Roboto-Bold, Roboto" font-size="10" font-weight="bold" fill="#FFFFFF">
                            <tspan x="20.1276596" y="13">Me gusta</tspan>
                        </text>
                        <g id="Page-1">
                            <polygon id="Fill-1" fill="#FFFFFF" points="0 15 2.60447354 15 2.60447354 7.69230769 0 7.69230769"></polygon>
                            <g id="Group-4" transform="translate(3.720676, 0.000000)">
                                <mask id="mask-2" fill="white">
                                    <use xlink:href="#path-1"></use>
                                </mask>
                                <g id="Clip-3"></g>
                                <path d="M10.3198729,8.59707192 C11.1586064,7.68057797 10.8135137,6.44409515 9.61629302,6.11124287 C9.33780038,6.03378078 9.03726274,6.01303032 8.74649187,6.00974405 C7.69512171,5.99810127 6.64356552,6.00523717 5.55089585,6.00523717 C5.55591877,5.89397343 5.55247714,5.84740228 5.56112771,5.80317847 C5.58791658,5.66543678 5.62000742,5.52882181 5.64884266,5.3914557 C5.94956634,3.96530811 6.00212089,2.53737655 5.57749869,1.12981986 C5.25919482,0.0748330783 4.61477365,-0.149196689 3.48712962,0.217738907 C3.14668773,0.328533176 2.9738623,0.581763806 2.92019154,0.943253582 C2.83545314,1.51365628 2.71276383,2.07823759 2.62709525,2.64854639 C2.37148478,4.35064682 1.21891222,5.39633816 0.022621713,6.454799 L0.022621713,7.89484282 L0.022621713,12.7061309 L0.022621713,13.9458061 C0.363156628,14.1096502 0.631975505,14.2650438 0.918746645,14.3696411 C1.38001751,14.5378982 1.84984594,14.7848379 2.32246487,14.8001426 C3.96281811,14.8534741 5.60596187,14.8347893 7.24780338,14.8162923 C8.13146405,14.8064334 8.76146759,14.135377 8.82397496,13.2343754 C8.83253252,13.111375 8.92564244,12.9543852 9.02758898,12.8843407 C9.72326247,12.4068925 9.88725128,11.9916956 9.7251228,11.1228057 C9.70205461,10.9989602 9.75265581,10.8181214 9.83599896,10.7238524 C10.4727927,10.0037836 10.5186501,9.73590555 10.0774709,8.77058701 C10.143978,8.72401586 10.2481569,8.67556684 10.3198729,8.59707192" id="Fill-2" fill="#FFFFFF" mask="url(#mask-2)"></path>
                            </g>
                        </g>
                    </g>
                </g>
            </g>
        </g>
    </g>
</svg>